[
  {
    "Code": "ABARZO112",
    "Description": "U-BOLT ZINC COMPLETE",
    "Diameter": 0,
    "Width": 0,
    "Height": 0,
    "Thikness": 0
  },
  {
    "Code": "ABRAZADERA32",
    "Description": "PVC CLAMP PIPE Ø32 mm",
    "Diameter": 0,
    "Width": 0,
    "Height": 0,
    "Thikness": 0
  },
  {
    "Code": "ABRAZADERA63",
    "Description": "PVC CLAMP PIPE Ø63 mm",
    "Diameter": 0,
    "Width": 0,
    "Height": 0,
    "Thikness": 0
  },
  {
    "Code": "ABRAZADERAM110",
    "Description": "GALVANIZED PIPE BRACKETØ110mm M8 THREAD",
    "Diameter": 0,
    "Width": 0,
    "Height": 0,
    "Thikness": 0
  },
  {
    "Code": "ABRAZADERAM160",
    "Description": "INOX BRACKETØ160mm M8 THREAD",
    "Diameter": 0,
    "Width": 0,
    "Height": 0,
    "Thikness": 0
  },
  {
    "Code": "ABRAZADERAM90",
    "Description": "GALVANIZED PIPE BRACKETØ90mm M8 THREAD",
    "Diameter": 0,
    "Width": 0,
    "Height": 0,
    "Thikness": 0
  },
  {
    "Code": "ACIDOREDONDO2000",
    "Description": "ROUND ACID TANK BLACK 2000l WITH TAP",
    "Diameter": 0,
    "Width": 0,
    "Height": 0,
    "Thikness": 0
  },
  {
    "Code": "ACOPLEPVC90",
    "Description": "PVC ADAPTOR UNION  Ø90mm",
    "Diameter": 0,
    "Width": 0,
    "Height": 0,
    "Thikness": 0
  },
  {
    "Code": "ACOPLETANKE90",
    "Description": "TANK COUPLING Ø90mm",
    "Diameter": 0,
    "Width": 0,
    "Height": 0,
    "Thikness": 0
  },
  {
    "Code": "ACOPTANQUE32",
    "Description": "PVC TANK COUPLING Ø32 mm",
    "Diameter": 0,
    "Width": 0,
    "Height": 0,
    "Thikness": 0
  }
]